%YAML 1.1
%TAG !u! tag:unity3d.com,2011:
--- !u!1 &1080176077356705736
GameObject:
  m_ObjectHideFlags: 0
  m_CorrespondingSourceObject: {fileID: 0}
  m_PrefabInstance: {fileID: 0}
  m_PrefabAsset: {fileID: 0}
  serializedVersion: 6
  m_Component:
  - component: {fileID: 8494421068401327226}
  - component: {fileID: 3480155045131028917}
  - component: {fileID: 3518344320080148897}
  - component: {fileID: 5233190829313177175}
  - component: {fileID: 3892958017985385195}
  m_Layer: 9
  m_Name: EnemyShip
  m_TagString: Enemy
  m_Icon: {fileID: 0}
  m_NavMeshLayer: 0
  m_StaticEditorFlags: 0
  m_IsActive: 1
--- !u!4 &8494421068401327226
Transform:
  m_ObjectHideFlags: 0
  m_CorrespondingSourceObject: {fileID: 0}
  m_PrefabInstance: {fileID: 0}
  m_PrefabAsset: {fileID: 0}
  m_GameObject: {fileID: 1080176077356705736}
  m_LocalRotation: {x: 0, y: 0, z: 0, w: 1}
  m_LocalPosition: {x: 0, y: 4, z: 0}
  m_LocalScale: {x: 0.1, y: 0.1, z: 0.1}
  m_Children:
  - {fileID: 2024034874390760204}
  - {fileID: 5950317619771563378}
  m_Father: {fileID: 0}
  m_RootOrder: 0
  m_LocalEulerAnglesHint: {x: 0, y: 0, z: 0}
--- !u!212 &3480155045131028917
SpriteRenderer:
  m_ObjectHideFlags: 0
  m_CorrespondingSourceObject: {fileID: 0}
  m_PrefabInstance: {fileID: 0}
  m_PrefabAsset: {fileID: 0}
  m_GameObject: {fileID: 1080176077356705736}
  m_Enabled: 1
  m_CastShadows: 0
  m_ReceiveShadows: 0
  m_DynamicOccludee: 1
  m_MotionVectors: 1
  m_LightProbeUsage: 1
  m_ReflectionProbeUsage: 1
  m_RayTracingMode: 0
  m_RenderingLayerMask: 1
  m_RendererPriority: 0
  m_Materials:
  - {fileID: 10754, guid: 0000000000000000f000000000000000, type: 0}
  m_StaticBatchInfo:
    firstSubMesh: 0
    subMeshCount: 0
  m_StaticBatchRoot: {fileID: 0}
  m_ProbeAnchor: {fileID: 0}
  m_LightProbeVolumeOverride: {fileID: 0}
  m_ScaleInLightmap: 1
  m_ReceiveGI: 1
  m_PreserveUVs: 0
  m_IgnoreNormalsForChartDetection: 0
  m_ImportantGI: 0
  m_StitchLightmapSeams: 1
  m_SelectedEditorRenderState: 0
  m_MinimumChartSize: 4
  m_AutoUVMaxDistance: 0.5
  m_AutoUVMaxAngle: 89
  m_LightmapParameters: {fileID: 0}
  m_SortingLayerID: 0
  m_SortingLayer: 0
  m_SortingOrder: 0
  m_Sprite: {fileID: 21300000, guid: ff81d15bb417ef64ca9e1ee04e463da8, type: 3}
  m_Color: {r: 1, g: 1, b: 1, a: 1}
  m_FlipX: 0
  m_FlipY: 0
  m_DrawMode: 0
  m_Size: {x: 10.24, y: 10.24}
  m_AdaptiveModeThreshold: 0.5
  m_SpriteTileMode: 0
  m_WasSpriteAssigned: 1
  m_MaskInteraction: 0
  m_SpriteSortPoint: 0
--- !u!114 &3518344320080148897
MonoBehaviour:
  m_ObjectHideFlags: 0
  m_CorrespondingSourceObject: {fileID: 0}
  m_PrefabInstance: {fileID: 0}
  m_PrefabAsset: {fileID: 0}
  m_GameObject: {fileID: 1080176077356705736}
  m_Enabled: 1
  m_EditorHideFlags: 0
  m_Script: {fileID: 11500000, guid: 499b434c2581fb34b9bf48a811d9c3c3, type: 3}
  m_Name: 
  m_EditorClassIdentifier: 
  chasingTheresholdDistance: 10
  moveSpeed: 1
  enemySpaceship: {fileID: 5233190829313177175}
--- !u!114 &5233190829313177175
MonoBehaviour:
  m_ObjectHideFlags: 0
  m_CorrespondingSourceObject: {fileID: 0}
  m_PrefabInstance: {fileID: 0}
  m_PrefabAsset: {fileID: 0}
  m_GameObject: {fileID: 1080176077356705736}
  m_Enabled: 1
  m_EditorHideFlags: 0
  m_Script: {fileID: 11500000, guid: 380686792e66cfd4bae39bc5f88d81c7, type: 3}
  m_Name: 
  m_EditorClassIdentifier: 
  defaultBulletOne: {fileID: 5943986703199496265, guid: 7a9cfff37478bb946995720b818b9de2,
    type: 3}
  defaultBulletTwo: {fileID: 0}
  gunPosition:
  - {fileID: 2024034874390760204}
  enemyFireRate: 3
  fireCounter: 0
  healthBar: {fileID: 5277516897693255311}
--- !u!61 &3892958017985385195
BoxCollider2D:
  m_ObjectHideFlags: 0
  m_CorrespondingSourceObject: {fileID: 0}
  m_PrefabInstance: {fileID: 0}
  m_PrefabAsset: {fileID: 0}
  m_GameObject: {fileID: 1080176077356705736}
  m_Enabled: 1
  m_Density: 1
  m_Material: {fileID: 0}
  m_IsTrigger: 1
  m_UsedByEffector: 0
  m_UsedByComposite: 0
  m_Offset: {x: 0, y: 0}
  m_SpriteTilingProperty:
    border: {x: 0, y: 0, z: 0, w: 0}
    pivot: {x: 0.5, y: 0.5}
    oldSize: {x: 10.24, y: 10.24}
    newSize: {x: 10.24, y: 10.24}
    adaptiveTilingThreshold: 0.5
    drawMode: 0
    adaptiveTiling: 0
  m_AutoTiling: 0
  serializedVersion: 2
  m_Size: {x: 10.24, y: 10.24}
  m_EdgeRadius: 0
--- !u!1 &1962221785997773651
GameObject:
  m_ObjectHideFlags: 0
  m_CorrespondingSourceObject: {fileID: 0}
  m_PrefabInstance: {fileID: 0}
  m_PrefabAsset: {fileID: 0}
  serializedVersion: 6
  m_Component:
  - component: {fileID: 2024034874390760204}
  m_Layer: 0
  m_Name: ShootPoint
  m_TagString: Untagged
  m_Icon: {fileID: 7174288486110832750, guid: 0000000000000000d000000000000000, type: 0}
  m_NavMeshLayer: 0
  m_StaticEditorFlags: 0
  m_IsActive: 1
--- !u!4 &2024034874390760204
Transform:
  m_ObjectHideFlags: 0
  m_CorrespondingSourceObject: {fileID: 0}
  m_PrefabInstance: {fileID: 0}
  m_PrefabAsset: {fileID: 0}
  m_GameObject: {fileID: 1962221785997773651}
  m_LocalRotation: {x: 0, y: 0, z: 0, w: 1}
  m_LocalPosition: {x: 0, y: -5.77, z: 0}
  m_LocalScale: {x: 1, y: 1, z: 1}
  m_Children: []
  m_Father: {fileID: 8494421068401327226}
  m_RootOrder: 0
  m_LocalEulerAnglesHint: {x: 0, y: 0, z: 0}
--- !u!1001 &1912665172839276572
PrefabInstance:
  m_ObjectHideFlags: 0
  serializedVersion: 2
  m_Modification:
    m_TransformParent: {fileID: 8494421068401327226}
    m_Modifications:
    - target: {fileID: 3979462531971597864, guid: 22e83e22d8de49e44b98de834d2ec708,
        type: 3}
      propertyPath: m_Name
      value: HealthBar
      objectReference: {fileID: 0}
    - target: {fileID: 5195149070970387822, guid: 22e83e22d8de49e44b98de834d2ec708,
        type: 3}
      propertyPath: m_Pivot.x
      value: 0.5
      objectReference: {fileID: 0}
    - target: {fileID: 5195149070970387822, guid: 22e83e22d8de49e44b98de834d2ec708,
        type: 3}
      propertyPath: m_Pivot.y
      value: 0.5
      objectReference: {fileID: 0}
    - target: {fileID: 5195149070970387822, guid: 22e83e22d8de49e44b98de834d2ec708,
        type: 3}
      propertyPath: m_RootOrder
      value: 1
      objectReference: {fileID: 0}
    - target: {fileID: 5195149070970387822, guid: 22e83e22d8de49e44b98de834d2ec708,
        type: 3}
      propertyPath: m_AnchorMax.x
      value: 0
      objectReference: {fileID: 0}
    - target: {fileID: 5195149070970387822, guid: 22e83e22d8de49e44b98de834d2ec708,
        type: 3}
      propertyPath: m_AnchorMax.y
      value: 0
      objectReference: {fileID: 0}
    - target: {fileID: 5195149070970387822, guid: 22e83e22d8de49e44b98de834d2ec708,
        type: 3}
      propertyPath: m_AnchorMin.x
      value: 0
      objectReference: {fileID: 0}
    - target: {fileID: 5195149070970387822, guid: 22e83e22d8de49e44b98de834d2ec708,
        type: 3}
      propertyPath: m_AnchorMin.y
      value: 0
      objectReference: {fileID: 0}
    - target: {fileID: 5195149070970387822, guid: 22e83e22d8de49e44b98de834d2ec708,
        type: 3}
      propertyPath: m_SizeDelta.x
      value: 22.59053
      objectReference: {fileID: 0}
    - target: {fileID: 5195149070970387822, guid: 22e83e22d8de49e44b98de834d2ec708,
        type: 3}
      propertyPath: m_SizeDelta.y
      value: 1.244144
      objectReference: {fileID: 0}
    - target: {fileID: 5195149070970387822, guid: 22e83e22d8de49e44b98de834d2ec708,
        type: 3}
      propertyPath: m_LocalPosition.x
      value: 0
      objectReference: {fileID: 0}
    - target: {fileID: 5195149070970387822, guid: 22e83e22d8de49e44b98de834d2ec708,
        type: 3}
      propertyPath: m_LocalPosition.y
      value: 0
      objectReference: {fileID: 0}
    - target: {fileID: 5195149070970387822, guid: 22e83e22d8de49e44b98de834d2ec708,
        type: 3}
      propertyPath: m_LocalPosition.z
      value: 0
      objectReference: {fileID: 0}
    - target: {fileID: 5195149070970387822, guid: 22e83e22d8de49e44b98de834d2ec708,
        type: 3}
      propertyPath: m_LocalRotation.w
      value: 1
      objectReference: {fileID: 0}
    - target: {fileID: 5195149070970387822, guid: 22e83e22d8de49e44b98de834d2ec708,
        type: 3}
      propertyPath: m_LocalRotation.x
      value: 0
      objectReference: {fileID: 0}
    - target: {fileID: 5195149070970387822, guid: 22e83e22d8de49e44b98de834d2ec708,
        type: 3}
      propertyPath: m_LocalRotation.y
      value: 0
      objectReference: {fileID: 0}
    - target: {fileID: 5195149070970387822, guid: 22e83e22d8de49e44b98de834d2ec708,
        type: 3}
      propertyPath: m_LocalRotation.z
      value: 0
      objectReference: {fileID: 0}
    - target: {fileID: 5195149070970387822, guid: 22e83e22d8de49e44b98de834d2ec708,
        type: 3}
      propertyPath: m_AnchoredPosition.x
      value: 0.16
      objectReference: {fileID: 0}
    - target: {fileID: 5195149070970387822, guid: 22e83e22d8de49e44b98de834d2ec708,
        type: 3}
      propertyPath: m_AnchoredPosition.y
      value: 6.076
      objectReference: {fileID: 0}
    - target: {fileID: 5195149070970387822, guid: 22e83e22d8de49e44b98de834d2ec708,
        type: 3}
      propertyPath: m_LocalEulerAnglesHint.x
      value: 0
      objectReference: {fileID: 0}
    - target: {fileID: 5195149070970387822, guid: 22e83e22d8de49e44b98de834d2ec708,
        type: 3}
      propertyPath: m_LocalEulerAnglesHint.y
      value: 0
      objectReference: {fileID: 0}
    - target: {fileID: 5195149070970387822, guid: 22e83e22d8de49e44b98de834d2ec708,
        type: 3}
      propertyPath: m_LocalEulerAnglesHint.z
      value: 0
      objectReference: {fileID: 0}
    - target: {fileID: 5761392947032237951, guid: 22e83e22d8de49e44b98de834d2ec708,
        type: 3}
      propertyPath: m_AnchorMax.x
      value: 0
      objectReference: {fileID: 0}
    - target: {fileID: 5761392947032237951, guid: 22e83e22d8de49e44b98de834d2ec708,
        type: 3}
      propertyPath: m_AnchorMax.y
      value: 0
      objectReference: {fileID: 0}
    - target: {fileID: 5761392947032237951, guid: 22e83e22d8de49e44b98de834d2ec708,
        type: 3}
      propertyPath: m_AnchoredPosition.x
      value: 0.017899513
      objectReference: {fileID: 0}
    - target: {fileID: 5761392947032237951, guid: 22e83e22d8de49e44b98de834d2ec708,
        type: 3}
      propertyPath: m_AnchoredPosition.y
      value: 0.0076999664
      objectReference: {fileID: 0}
    m_RemovedComponents: []
  m_SourcePrefab: {fileID: 100100000, guid: 22e83e22d8de49e44b98de834d2ec708, type: 3}
--- !u!224 &5950317619771563378 stripped
RectTransform:
  m_CorrespondingSourceObject: {fileID: 5195149070970387822, guid: 22e83e22d8de49e44b98de834d2ec708,
    type: 3}
  m_PrefabInstance: {fileID: 1912665172839276572}
  m_PrefabAsset: {fileID: 0}
--- !u!114 &5277516897693255311 stripped
MonoBehaviour:
  m_CorrespondingSourceObject: {fileID: 6032192916531209875, guid: 22e83e22d8de49e44b98de834d2ec708,
    type: 3}
  m_PrefabInstance: {fileID: 1912665172839276572}
  m_PrefabAsset: {fileID: 0}
  m_GameObject: {fileID: 0}
  m_Enabled: 1
  m_EditorHideFlags: 0
  m_Script: {fileID: 11500000, guid: 501d2e725b0952c43a80b64c2941b713, type: 3}
  m_Name: 
  m_EditorClassIdentifier: 
